%YAML 1.1
%TAG !u! tag:unity3d.com,2011:
--- !u!1045 &1
EditorBuildSettings:
  m_ObjectHideFlags: 0
  serializedVersion: 2
  m_Scenes:
  - enabled: 1
    path: Assets/Scenes/MainMenu.unity
    guid: cc01ff39b8caeb544977a8af73f11f9d
  - enabled: 1
    path: Assets/Scenes/Level1.unity
    guid: eef4a8da1296ad1468029babad326195
  - enabled: 1
    path: Assets/Scenes/Level2.unity
    guid: 9fc0d4010bbf28b4594072e72b8655ab
  - enabled: 1
    path: Assets/Scenes/Level3.unity
    guid: 020e1bcd59924cd459cb4d5cecf5d928
  - enabled: 1
    path: Assets/Scenes/Level4.unity
    guid: aac2abfa2cd685545aa6bb1ff1767476
  - enabled: 1
    path: Assets/Scenes/Level5.unity
    guid: 172f2ab4bf38fb446a5db91fa04df273
  - enabled: 1
    path: Assets/Scenes/Level6.unity
    guid: e887792201bb82a4cad7c856f5ba940b
  - enabled: 1
    path: Assets/Scenes/EndScreen.unity
    guid: 6d9c4f1e24ddf5b44b6ec4cc361f32f8
  m_configObjects: {}
